<svg width="44" height="27" viewBox="0 0 44 27" fill="none" xmlns="http://www.w3.org/2000/svg">
<path d="M43.608 20.9422V19.548C43.6453 19.3402 43.6645 19.1295 43.6654 18.9183V11.7985C43.6645 11.0164 43.42 10.2545 42.9667 9.62125C42.5134 8.98796 41.8744 8.51552 41.1405 8.27112C41.236 8.15892 41.2974 8.0212 41.3175 7.87451C41.3375 7.72781 41.3153 7.57838 41.2535 7.44416C41.1917 7.30994 41.0929 7.19664 40.969 7.11786C40.8452 7.03908 40.7015 6.99818 40.5552 7.00006H29.6522C29.5261 7.0015 29.4024 7.03458 29.2921 7.09633C29.1817 7.15808 29.0883 7.24657 29.02 7.35388C28.9518 7.46119 28.9109 7.58396 28.9011 7.71119C28.8912 7.83842 28.9127 7.96614 28.9636 8.0829H16.4378C16.4481 8.03244 16.4535 7.98107 16.4538 7.92954C16.4538 7.72432 16.3733 7.5275 16.23 7.38239C16.0866 7.23727 15.8922 7.15575 15.6895 7.15575H4.7842C4.68383 7.15575 4.58443 7.17576 4.4917 7.21465C4.39896 7.25354 4.3147 7.31053 4.24372 7.38239C4.17275 7.45424 4.11644 7.53954 4.07803 7.63342C4.03962 7.7273 4.01985 7.82792 4.01985 7.92954C4.02011 7.98184 4.0255 8.03399 4.03592 8.08522H3.91197C2.93794 8.08522 2.0038 8.47693 1.31506 9.17417C0.626312 9.87141 0.23938 10.8171 0.23938 11.8031V18.9159H33.4763V19.8454H0.23938V21.0979C0.0857639 21.2601 0 21.4761 0 21.7009C0 21.9256 0.0857639 22.1416 0.23938 22.3039V24.279H3.54471C3.65009 23.554 4.0095 22.8916 4.55732 22.4127C5.10514 21.9337 5.80484 21.6702 6.52868 21.6702C7.25252 21.6702 7.95222 21.9337 8.50004 22.4127C9.04787 22.8916 9.40728 23.554 9.51266 24.279H34.1947C34.3001 23.554 34.6595 22.8916 35.2073 22.4127C35.7552 21.9337 36.4549 21.6702 37.1787 21.6702C37.9025 21.6702 38.6022 21.9337 39.1501 22.4127C39.6979 22.8916 40.0573 23.554 40.1627 24.279H43.6057V22.4596C43.7274 22.374 43.8268 22.2598 43.8955 22.1269C43.9641 21.994 44 21.8462 44 21.6962C44 21.5462 43.9641 21.3985 43.8955 21.2655C43.8268 21.1326 43.7274 21.0185 43.6057 20.9329L43.608 20.9422ZM34.8076 11.1827C34.8076 10.8616 34.9336 10.5537 35.1579 10.3266C35.3821 10.0996 35.6863 9.97206 36.0035 9.97206H40.1145C40.4316 9.97206 40.7358 10.0996 40.9601 10.3266C41.1844 10.5537 41.3104 10.8616 41.3104 11.1827V15.3328C41.3104 16.002 40.7755 17.1616 40.1145 17.1616L36.0035 16.5411C35.6863 16.5411 35.3821 16.4136 35.1579 16.1865C34.9336 15.9595 34.8076 15.6516 34.8076 15.3305V11.1827ZM10.0176 15.3467C10.0176 15.5057 9.9867 15.6632 9.92661 15.81C9.86651 15.9569 9.77842 16.0904 9.66737 16.2028C9.55632 16.3152 9.42449 16.4044 9.2794 16.4652C9.13431 16.5261 8.9788 16.5574 8.82175 16.5574H4.70616C4.38899 16.5574 4.08482 16.4298 3.86054 16.2028C3.63627 15.9758 3.51028 15.6678 3.51028 15.3467V11.1711C3.51028 10.85 3.63627 10.5421 3.86054 10.315C4.08482 10.088 4.38899 9.96044 4.70616 9.96044H8.81716C8.97421 9.96044 9.12972 9.99176 9.27481 10.0526C9.4199 10.1134 9.55173 10.2026 9.66278 10.315C9.77383 10.4274 9.86192 10.5609 9.92202 10.7078C9.98211 10.8547 10.013 11.0121 10.013 11.1711L10.0176 15.3467ZM17.8425 15.3467C17.8425 15.6678 17.7165 15.9758 17.4923 16.2028C17.268 16.4298 16.9638 16.5574 16.6467 16.5574H12.5311C12.2139 16.5574 11.9097 16.4298 11.6854 16.2028C11.4612 15.9758 11.3352 15.6678 11.3352 15.3467V11.1711C11.3352 10.85 11.4612 10.5421 11.6854 10.315C11.9097 10.088 12.2139 9.96044 12.5311 9.96044H16.6421C16.9592 9.96044 17.2634 10.088 17.4877 10.315C17.712 10.5421 17.8379 10.85 17.8379 11.1711L17.8425 15.3467ZM25.6674 15.3467C25.6674 15.6678 25.5414 15.9758 25.3172 16.2028C25.0929 16.4298 24.7887 16.5574 24.4716 16.5574H20.356C20.0388 16.5574 19.7346 16.4298 19.5103 16.2028C19.2861 15.9758 19.1601 15.6678 19.1601 15.3467V11.1711C19.1601 10.85 19.2861 10.5421 19.5103 10.315C19.7346 10.088 20.0388 9.96044 20.356 9.96044H24.467C24.7841 9.96044 25.0883 10.088 25.3126 10.315C25.5369 10.5421 25.6629 10.85 25.6629 11.1711L25.6674 15.3467ZM32.2965 16.5574H28.1786C27.8614 16.5574 27.5572 16.4298 27.333 16.2028C27.1087 15.9758 26.9827 15.6678 26.9827 15.3467V11.1711C26.9827 10.85 27.1087 10.5421 27.333 10.315C27.5572 10.088 27.8614 9.96044 28.1786 9.96044H32.2896C32.6067 9.96044 32.9109 10.088 33.1352 10.315C33.3595 10.5421 33.4855 10.85 33.4855 11.1711V15.3328C33.4855 15.6535 33.3598 15.9611 33.136 16.188C32.9122 16.415 32.6086 16.5428 32.2919 16.5434L32.2965 16.5574ZM35.0624 19.8106V18.8183C35.0624 18.6674 35.1216 18.5225 35.2271 18.4158C35.3325 18.309 35.4756 18.249 35.6247 18.249H39.9492C40.0984 18.249 40.2414 18.309 40.3469 18.4158C40.4523 18.5225 40.5116 18.6674 40.5116 18.8183V19.7989C40.5116 19.8152 40.5116 19.8291 40.5116 19.8454C40.5005 19.9884 40.4364 20.1219 40.332 20.2189C40.2277 20.3159 40.0909 20.3693 39.9492 20.3682H35.6201C35.4789 20.368 35.3429 20.3138 35.2395 20.2164C35.1361 20.1191 35.0728 19.9857 35.0624 19.8431C35.0601 19.8285 35.0586 19.8137 35.0578 19.7989L35.0624 19.8106Z" fill="#F2994A"/>
<path d="M6.62498 22.4596C6.16686 22.4564 5.71879 22.5954 5.34103 22.8578C4.96327 23.1202 4.67395 23.4934 4.512 23.9272C4.35004 24.361 4.32322 24.8347 4.43514 25.2844C4.54706 25.7341 4.79235 26.1384 5.13801 26.4427C5.48368 26.7471 5.91313 26.937 6.3686 26.9869C6.82407 27.0367 7.2837 26.9442 7.68565 26.7217C8.08761 26.4992 8.41261 26.1574 8.61694 25.7423C8.82126 25.3272 8.8951 24.8587 8.82853 24.3999C8.75384 23.8619 8.48977 23.3694 8.08489 23.0129C7.68002 22.6564 7.16158 22.4599 6.62498 22.4596Z" fill="#F2994A"/>
<path d="M37.082 22.4596C36.5454 22.4599 36.0269 22.6564 35.6221 23.0129C35.2172 23.3694 34.9531 23.8619 34.8784 24.3999C34.8635 24.5038 34.8558 24.6086 34.8555 24.7136C34.8555 25.3117 35.0902 25.8853 35.5079 26.3082C35.9257 26.7311 36.4923 26.9687 37.0831 26.9687C37.6739 26.9687 38.2405 26.7311 38.6583 26.3082C39.0761 25.8853 39.3108 25.3117 39.3108 24.7136C39.3098 24.6085 39.3013 24.5037 39.2855 24.3999C39.2108 23.8619 38.9468 23.3694 38.5419 23.0129C38.137 22.6564 37.6186 22.4599 37.082 22.4596Z" fill="#F2994A"/>
<rect x="9.79297" y="0.0549316" width="15.1928" height="1.5" rx="0.75" transform="rotate(21.5369 9.79297 0.0549316)" fill="#F2994A"/>
<rect x="12.793" y="0.0549316" width="15.1928" height="1.5" rx="0.75" transform="rotate(21.5369 12.793 0.0549316)" fill="#F2994A"/>
</svg>
