<svg width="21" height="21" viewBox="0 0 21 21" fill="none" xmlns="http://www.w3.org/2000/svg">
<g clip-path="url(#clip0)">
<path d="M4.31496 12.9197L11.4339 20.0387C12.0536 20.6584 12.8795 21 13.7602 21C14.6401 21 15.466 20.6584 16.0857 20.0387L16.6803 19.4441C17.3 18.826 17.6416 17.9993 17.6416 17.1194C17.6416 16.2395 17.3 15.4136 16.6803 14.7931L12.3872 10.5L16.6803 6.20685C17.3 5.58641 17.6416 4.7613 17.6416 3.88059C17.6416 2.99988 17.3 2.17397 16.6795 1.55433L16.0865 0.961282C15.466 0.340032 14.6409 -3.58461e-06 13.7602 -3.50762e-06C12.8795 -3.43063e-06 12.0544 0.341644 11.4339 0.961282L4.31496 8.08107C3.68082 8.7136 3.33514 9.5919 3.35932 10.5C3.33514 11.4073 3.6792 12.2848 4.31496 12.9197ZM5.45432 9.22043L12.5733 2.10064C12.898 1.77511 13.3291 1.61154 13.7602 1.61154C14.1913 1.61154 14.6208 1.77511 14.9479 2.10064L15.541 2.69449C16.1944 3.34636 16.1944 4.41482 15.541 5.06588L10.1084 10.4984L15.541 15.9325C16.1944 16.5852 16.1944 17.6536 15.541 18.3039L14.9479 18.8977C14.6208 19.2249 14.1905 19.3885 13.7602 19.3885C13.3291 19.3885 12.8988 19.2249 12.5733 18.8994L5.45432 11.7804C5.103 11.4299 4.94829 10.9601 4.97247 10.5C4.94829 10.0399 5.10381 9.57014 5.45432 9.22043Z" fill="white"/>
</g>
<defs>
<clipPath id="clip0">
<rect width="21" height="21" fill="white" transform="translate(21 21) rotate(180)"/>
</clipPath>
</defs>
</svg>
